23:31:49	 From  50120045_Faizan_Khan : mujhe kuch yaad hi nhi bhai
23:32:12	 From  030_Ayush Pratap singh_Kh : BADAAM KAHAYA KARO
23:32:26	 From  008_Akshay Shinde_JH   to   Nipun Madaan(Direct Message) : npm install cors
23:32:51	 From  50120045_Faizan_Khan : thanks bro
23:33:14	 From  50120114_vikas_atreya : react kia kya tune faizan??
23:33:19	 From  50120045_Faizan_Khan : kon sa kaccha y pka hua
23:33:32	 From  50120045_Faizan_Khan : kaccha badaam y pakka badaam
23:33:52	 From  50120045_Faizan_Khan : ?
